[
  {
    "GAME_ID": 1,
    "GAME_STARTED": "2021-05-26 14:44:56.837652000",
    "P1_NAME": "Jeroen",
    "P2_NAME": "Andrew",
    "WINNER": "Jeroen",
    "TOTAL_TIME": 408,
    "NUMBER_OF_MOVES": 12,
    "AVG_MOVE_TIME": 34,
    "AVG_SCORE": 2.42,
    "SUM_SCORE": 29
  },
  {
    "GAME_ID": 5,
    "GAME_STARTED": "2021-05-26 14:45:04.119697000",
    "P1_NAME": "Jeroen",
    "P2_NAME": "Andrew",
    "WINNER": "Andrew",
    "TOTAL_TIME": 408,
    "NUMBER_OF_MOVES": 12,
    "AVG_MOVE_TIME": 34,
    "AVG_SCORE": 2.42,
    "SUM_SCORE": 29
  },
  {
    "GAME_ID": 2,
    "GAME_STARTED": "2021-05-26 14:44:58.894537000",
    "P1_NAME": "Ransford",
    "P2_NAME": "Wannes",
    "WINNER": "Ransford",
    "TOTAL_TIME": 465,
    "NUMBER_OF_MOVES": 12,
    "AVG_MOVE_TIME": 38.75,
    "AVG_SCORE": 1.92,
    "SUM_SCORE": 23
  },
  {
    "GAME_ID": 4,
    "GAME_STARTED": "2021-05-26 14:45:02.501011000",
    "P1_NAME": "Yentl",
    "P2_NAME": "Ruben",
    "WINNER": "Wannes",
    "TOTAL_TIME": 408,
    "NUMBER_OF_MOVES": 12,
    "AVG_MOVE_TIME": 34,
    "AVG_SCORE": 2.42,
    "SUM_SCORE": 29
  },
  {
    "GAME_ID": 3,
    "GAME_STARTED": "2021-05-26 14:45:00.798989000",
    "P1_NAME": "Yentl",
    "P2_NAME": "Ruben",
    "WINNER": "Ruben",
    "TOTAL_TIME": 471,
    "NUMBER_OF_MOVES": 12,
    "AVG_MOVE_TIME": 39.25,
    "AVG_SCORE": 2.33,
    "SUM_SCORE": 28
  }
]